
  {
    "welcome_message": {
      "german": "Herzlich Willkommen auf der Webseite von Pizza Plaza!",
      "english": "Welcome to Pizza Plaza!"
    },
    "about_us": {
      "german": "Über uns",
      "english": "About Us"
    },
    "contact_us": {
      "german": "Kontakt",
      "english": "Contact Us"
    },
    "imprint": {
      "german": "Impressum",
      "english": "Imprint"
    },
    "online_order": {
      "german": "Online-Bestellung",
      "english": "Online Ordering"
    },
    "pizza_of_the_day": {
      "german": "Tagespizza:",
      "english": "Pizza of the Day:"
    },
    "pizza_description": {
      "german": "Die beste Kombination zwischen deftig und frisch!",
      "english": "The best combination of hearty and fresh!"
    },
    "welcome_text": {
      "german": "Herzlich Willkommen auf der Webseite von Pizza Plaza! Wir sind ein fiktives Restaurant in Gießen/Langgöns. Auf unserer Webseite erfahren Sie nähere Informationen über uns, Wege, uns zu kontaktieren und erhalten bald die Möglichkeit, Bestellungen online durchzuführen. Ihr Restaurant Pizza Plaza",
      "english": "Welcome to Pizza Plaza! We are a fictional restaurant located in Gießen/Langgöns. On our website, you can find more information about us, ways to contact us, and soon, you'll have the option to place orders online. Your Restaurant Pizza Plaza"
    }  
    
  }
  